---- root page ----
curl -v localhost:8000                                                                                                                                                                                     
*   Trying 127.0.0.1:8000...
* Connected to localhost (127.0.0.1) port 8000 (#0)
> GET / HTTP/1.1
> Host: localhost:8000
> User-Agent: curl/7.79.1
> Accept: */*
> 
* Mark bundle as not supporting multiuse
* HTTP 1.0, assume close after body
< HTTP/1.0 200 OK
< Date: Mon, 30 May 2022 14:10:49 GMT
< Server: WSGIServer/0.2 CPython/3.10.4
< Content-Length: 18
< Content-Type: text/html; charset=UTF-8
< 
* Closing connection 0
Hello GitGuardian!%                                                                                                                                                                                                                                                          

---- pod ID ----
curl -v localhost:8000/pod-id                                                                                                                                                                               
*   Trying 127.0.0.1:8000...
* Connected to localhost (127.0.0.1) port 8000 (#0)
> GET /pod-id HTTP/1.1
> Host: localhost:8000
> User-Agent: curl/7.79.1
> Accept: */*
> 
* Mark bundle as not supporting multiuse
* HTTP 1.0, assume close after body
< HTTP/1.0 200 OK
< Date: Mon, 30 May 2022 14:11:20 GMT
< Server: WSGIServer/0.2 CPython/3.10.4
< Content-Length: 20
< Content-Type: text/html; charset=UTF-8
< 
* Closing connection 0
app-6567cf6f78-p49v7%                                                                                                                                                                                                                                                        
